04_analysis
…
Warning: There were 213 warnings in `summarise()`.
The first warning was:
ℹ In argument: `Percentage Vaccinated = max(`Percentage Vaccinated`, na.rm =
  TRUE)`.
ℹ In group 1: `region = "Afghanistan"`.
Caused by warning in `max()`:
! no non-missing arguments to max; returning -Inf
ℹ Run `dplyr::last_dplyr_warnings()` to see the 212 remaining warnings.

# A tibble: 252 × 2
   region         `Percentage Vaccinated`
   <chr>                            <dbl>
 1 Afghanistan                     -Inf  
 2 Albania                         -Inf  
 3 Algeria                         -Inf  
 4 American Samoa                  -Inf  
 5 Andorra                         -Inf  
 6 Angola                          -Inf  
 7 Anguilla                        -Inf  
 8 Antarctica                      -Inf  
 9 Antigua                         -Inf  
10 Argentina                         31.1
# ℹ 242 more rows
…
